info face="MazzardSoft(3)" size=12 bold=0 italic=0 charset="" unicode=1 stretchH=100 smooth=1 aa=2 padding=1,1,1,1 spacing=0,0
common lineHeight=63 base=43 scaleW=512 scaleH=512 pages=2 packed=0 alphaChnl=0 redChnl=0 greenChnl=0 blueChnl=0
page id=0 file="MazzardSoft(3)_0.png"
page id=1 file="MazzardSoft(3)_1.png"
chars count=193
char id=0     x=0    y=0    width=0    height=0    xoffset=-1   yoffset=43   xadvance=1    page=1    chnl=0
char id=32    x=0    y=0    width=0    height=0    xoffset=-1   yoffset=-1   xadvance=16   page=0    chnl=0
char id=33    x=494  y=277  width=8    height=43   xoffset=2    yoffset=1    xadvance=14   page=0    chnl=0
char id=34    x=309  y=34   width=15   height=14   xoffset=2    yoffset=1    xadvance=21   page=1    chnl=0
char id=35    x=348  y=413  width=41   height=43   xoffset=0    yoffset=1    xadvance=43   page=0    chnl=0
char id=36    x=316  y=2    width=32   height=58   xoffset=1    yoffset=-7   xadvance=36   page=0    chnl=0
char id=37    x=50   y=277  width=47   height=44   xoffset=1    yoffset=1    xadvance=51   page=0    chnl=0
char id=38    x=391  y=413  width=39   height=43   xoffset=1    yoffset=1    xadvance=41   page=0    chnl=0
char id=39    x=498  y=65   width=7    height=14   xoffset=2    yoffset=1    xadvance=12   page=1    chnl=0
char id=40    x=83   y=2    width=16   height=60   xoffset=1    yoffset=-5   xadvance=18   page=0    chnl=0
char id=41    x=101  y=2    width=16   height=60   xoffset=-1   yoffset=-5   xadvance=18   page=0    chnl=0
char id=42    x=148  y=34   width=21   height=21   xoffset=1    yoffset=1    xadvance=26   page=1    chnl=0
char id=43    x=398  y=2    width=30   height=29   xoffset=3    yoffset=8    xadvance=38   page=1    chnl=0
char id=44    x=326  y=34   width=9    height=14   xoffset=1    yoffset=37   xadvance=13   page=1    chnl=0
char id=45    x=0    y=61   width=18   height=6    xoffset=2    yoffset=26   xadvance=24   page=1    chnl=0
char id=46    x=497  y=458  width=8    height=8    xoffset=1    yoffset=36   xadvance=12   page=1    chnl=0
char id=47    x=161  y=2    width=33   height=60   xoffset=-2   yoffset=-5   xadvance=31   page=0    chnl=0
char id=48    x=471  y=231  width=33   height=44   xoffset=2    yoffset=1    xadvance=39   page=0    chnl=0
char id=49    x=414  y=368  width=18   height=43   xoffset=1    yoffset=1    xadvance=26   page=0    chnl=0
char id=50    x=434  y=368  width=30   height=43   xoffset=1    yoffset=1    xadvance=34   page=0    chnl=0
char id=51    x=219  y=231  width=31   height=44   xoffset=1    yoffset=1    xadvance=35   page=0    chnl=0
char id=52    x=466  y=368  width=36   height=43   xoffset=1    yoffset=1    xadvance=39   page=0    chnl=0
char id=53    x=335  y=231  width=32   height=44   xoffset=1    yoffset=1    xadvance=36   page=0    chnl=0
char id=54    x=369  y=231  width=32   height=44   xoffset=2    yoffset=1    xadvance=37   page=0    chnl=0
char id=55    x=95   y=413  width=29   height=43   xoffset=-1   yoffset=1    xadvance=31   page=0    chnl=0
char id=56    x=403  y=231  width=32   height=44   xoffset=1    yoffset=1    xadvance=36   page=0    chnl=0
char id=57    x=437  y=231  width=32   height=44   xoffset=1    yoffset=1    xadvance=37   page=0    chnl=0
char id=58    x=487  y=458  width=8    height=30   xoffset=1    yoffset=14   xadvance=12   page=1    chnl=0
char id=59    x=216  y=458  width=9    height=38   xoffset=1    yoffset=14   xadvance=13   page=0    chnl=0
char id=60    x=33   y=2    width=29   height=30   xoffset=2    yoffset=7    xadvance=37   page=1    chnl=0
char id=61    x=194  y=34   width=30   height=19   xoffset=3    yoffset=13   xadvance=38   page=1    chnl=0
char id=62    x=2    y=2    width=29   height=30   xoffset=4    yoffset=8    xadvance=37   page=1    chnl=0
char id=63    x=126  y=413  width=31   height=43   xoffset=-1   yoffset=1    xadvance=32   page=0    chnl=0
char id=64    x=407  y=125  width=53   height=52   xoffset=1    yoffset=3    xadvance=56   page=0    chnl=0
char id=65    x=221  y=277  width=42   height=43   xoffset=-1   yoffset=1    xadvance=43   page=0    chnl=0
char id=66    x=265  y=277  width=35   height=43   xoffset=3    yoffset=1    xadvance=41   page=0    chnl=0
char id=67    x=307  y=182  width=42   height=44   xoffset=1    yoffset=1    xadvance=46   page=0    chnl=0
char id=68    x=302  y=277  width=40   height=43   xoffset=3    yoffset=1    xadvance=46   page=0    chnl=0
char id=69    x=344  y=277  width=32   height=43   xoffset=3    yoffset=1    xadvance=37   page=0    chnl=0
char id=70    x=378  y=277  width=32   height=43   xoffset=3    yoffset=1    xadvance=37   page=0    chnl=0
char id=71    x=351  y=182  width=44   height=44   xoffset=1    yoffset=1    xadvance=49   page=0    chnl=0
char id=72    x=412  y=277  width=37   height=43   xoffset=3    yoffset=1    xadvance=45   page=0    chnl=0
char id=73    x=478  y=182  width=7    height=43   xoffset=3    yoffset=1    xadvance=15   page=0    chnl=0
char id=74    x=397  y=182  width=32   height=44   xoffset=-1   yoffset=1    xadvance=36   page=0    chnl=0
char id=75    x=0    y=323  width=33   height=43   xoffset=3    yoffset=1    xadvance=37   page=0    chnl=0
char id=76    x=35   y=323  width=30   height=43   xoffset=3    yoffset=1    xadvance=35   page=0    chnl=0
char id=77    x=67   y=323  width=45   height=43   xoffset=3    yoffset=1    xadvance=53   page=0    chnl=0
char id=78    x=114  y=323  width=37   height=43   xoffset=3    yoffset=1    xadvance=45   page=0    chnl=0
char id=79    x=431  y=182  width=45   height=44   xoffset=1    yoffset=1    xadvance=49   page=0    chnl=0
char id=80    x=286  y=323  width=33   height=43   xoffset=3    yoffset=1    xadvance=39   page=0    chnl=0
char id=81    x=31   y=182  width=45   height=46   xoffset=1    yoffset=1    xadvance=49   page=0    chnl=0
char id=82    x=387  y=323  width=35   height=43   xoffset=3    yoffset=1    xadvance=40   page=0    chnl=0
char id=83    x=0    y=231  width=32   height=44   xoffset=1    yoffset=1    xadvance=36   page=0    chnl=0
char id=84    x=424  y=323  width=39   height=43   xoffset=0    yoffset=1    xadvance=41   page=0    chnl=0
char id=85    x=34   y=231  width=37   height=44   xoffset=3    yoffset=1    xadvance=45   page=0    chnl=0
char id=86    x=0    y=368  width=42   height=43   xoffset=-1   yoffset=1    xadvance=42   page=0    chnl=0
char id=87    x=44   y=368  width=60   height=43   xoffset=-1   yoffset=1    xadvance=60   page=0    chnl=0
char id=88    x=465  y=323  width=39   height=43   xoffset=-1   yoffset=1    xadvance=39   page=0    chnl=0
char id=89    x=106  y=368  width=39   height=43   xoffset=-1   yoffset=1    xadvance=39   page=0    chnl=0
char id=90    x=147  y=368  width=35   height=43   xoffset=1    yoffset=1    xadvance=39   page=0    chnl=0
char id=91    x=4    y=2    width=15   height=61   xoffset=2    yoffset=-6   xadvance=18   page=0    chnl=0
char id=92    x=196  y=2    width=33   height=60   xoffset=-2   yoffset=-5   xadvance=31   page=0    chnl=0
char id=93    x=21   y=2    width=16   height=61   xoffset=-1   yoffset=-6   xadvance=19   page=0    chnl=0
char id=94    x=226  y=34   width=31   height=19   xoffset=2    yoffset=0    xadvance=37   page=1    chnl=0
char id=95    x=20   y=61   width=19   height=6    xoffset=-2   yoffset=44   xadvance=17   page=1    chnl=0
char id=96    x=402  y=34   width=14   height=10   xoffset=2    yoffset=-8   xadvance=20   page=1    chnl=0
char id=97    x=422  y=458  width=31   height=30   xoffset=1    yoffset=14   xadvance=36   page=0    chnl=0
char id=98    x=78   y=182  width=31   height=46   xoffset=2    yoffset=-2   xadvance=35   page=0    chnl=0
char id=99    x=455  y=458  width=30   height=30   xoffset=1    yoffset=14   xadvance=33   page=0    chnl=0
char id=100   x=111  y=182  width=31   height=46   xoffset=1    yoffset=-2   xadvance=36   page=0    chnl=0
char id=101   x=64   y=2    width=31   height=30   xoffset=1    yoffset=14   xadvance=34   page=1    chnl=0
char id=102   x=144  y=182  width=19   height=46   xoffset=-1   yoffset=-2   xadvance=19   page=0    chnl=0
char id=103   x=73   y=231  width=31   height=44   xoffset=1    yoffset=14   xadvance=36   page=0    chnl=0
char id=104   x=165  y=182  width=28   height=46   xoffset=2    yoffset=-2   xadvance=34   page=0    chnl=0
char id=105   x=494  y=413  width=8    height=41   xoffset=1    yoffset=3    xadvance=12   page=0    chnl=0
char id=106   x=461  y=65   width=14   height=55   xoffset=-4   yoffset=3    xadvance=13   page=0    chnl=0
char id=107   x=195  y=182  width=24   height=46   xoffset=2    yoffset=-2   xadvance=27   page=0    chnl=0
char id=108   x=495  y=125  width=7    height=46   xoffset=2    yoffset=-2   xadvance=13   page=0    chnl=0
char id=109   x=97   y=2    width=46   height=30   xoffset=2    yoffset=14   xadvance=52   page=1    chnl=0
char id=110   x=145  y=2    width=28   height=30   xoffset=2    yoffset=14   xadvance=34   page=1    chnl=0
char id=111   x=175  y=2    width=31   height=30   xoffset=1    yoffset=14   xadvance=35   page=1    chnl=0
char id=112   x=106  y=231  width=31   height=44   xoffset=2    yoffset=14   xadvance=35   page=0    chnl=0
char id=113   x=139  y=231  width=31   height=44   xoffset=1    yoffset=14   xadvance=36   page=0    chnl=0
char id=114   x=280  y=458  width=18   height=31   xoffset=2    yoffset=13   xadvance=21   page=0    chnl=0
char id=115   x=208  y=2    width=24   height=30   xoffset=0    yoffset=14   xadvance=26   page=1    chnl=0
char id=116   x=259  y=458  width=19   height=36   xoffset=-1   yoffset=8    xadvance=20   page=0    chnl=0
char id=117   x=234  y=2    width=28   height=30   xoffset=2    yoffset=14   xadvance=34   page=1    chnl=0
char id=118   x=264  y=2    width=30   height=30   xoffset=-1   yoffset=14   xadvance=29   page=1    chnl=0
char id=119   x=296  y=2    width=42   height=30   xoffset=-1   yoffset=14   xadvance=42   page=1    chnl=0
char id=120   x=340  y=2    width=29   height=30   xoffset=-1   yoffset=14   xadvance=29   page=1    chnl=0
char id=121   x=254  y=182  width=29   height=45   xoffset=-1   yoffset=14   xadvance=28   page=0    chnl=0
char id=122   x=371  y=2    width=25   height=30   xoffset=0    yoffset=14   xadvance=27   page=1    chnl=0
char id=123   x=39   y=2    width=20   height=61   xoffset=-1   yoffset=-6   xadvance=20   page=0    chnl=0
char id=124   x=152  y=2    width=7    height=60   xoffset=2    yoffset=-5   xadvance=13   page=0    chnl=0
char id=125   x=61   y=2    width=20   height=61   xoffset=-1   yoffset=-6   xadvance=20   page=0    chnl=0
char id=126   x=353  y=34   width=31   height=11   xoffset=2    yoffset=17   xadvance=37   page=1    chnl=0
char id=161   x=484  y=277  width=8    height=43   xoffset=2    yoffset=14   xadvance=14   page=0    chnl=0
char id=162   x=356  y=323  width=29   height=43   xoffset=1    yoffset=1    xadvance=32   page=0    chnl=0
char id=163   x=321  y=323  width=33   height=43   xoffset=0    yoffset=1    xadvance=35   page=0    chnl=0
char id=164   x=430  y=2    width=29   height=28   xoffset=2    yoffset=8    xadvance=35   page=1    chnl=0
char id=165   x=245  y=323  width=39   height=43   xoffset=-1   yoffset=1    xadvance=39   page=0    chnl=0
char id=166   x=231  y=2    width=7    height=60   xoffset=2    yoffset=-5   xadvance=13   page=0    chnl=0
char id=167   x=203  y=65   width=26   height=56   xoffset=1    yoffset=1    xadvance=29   page=0    chnl=0
char id=168   x=428  y=34   width=19   height=7    xoffset=2    yoffset=-5   xadvance=25   page=1    chnl=0
char id=169   x=99   y=277  width=44   height=44   xoffset=1    yoffset=0    xadvance=48   page=0    chnl=0
char id=170   x=71   y=34   width=22   height=22   xoffset=0    yoffset=1    xadvance=25   page=1    chnl=0
char id=171   x=43   y=34   width=26   height=22   xoffset=0    yoffset=18   xadvance=29   page=1    chnl=0
char id=172   x=276  y=34   width=31   height=15   xoffset=2    yoffset=19   xadvance=37   page=1    chnl=0
char id=173   x=469  y=34   width=18   height=6    xoffset=2    yoffset=26   xadvance=24   page=1    chnl=0
char id=174   x=175  y=277  width=44   height=44   xoffset=1    yoffset=0    xadvance=48   page=0    chnl=0
char id=175   x=449  y=34   width=18   height=6    xoffset=2    yoffset=-5   xadvance=24   page=1    chnl=0
char id=176   x=171  y=34   width=21   height=20   xoffset=1    yoffset=-3   xadvance=24   page=1    chnl=0
char id=177   x=227  y=458  width=30   height=36   xoffset=3    yoffset=4    xadvance=38   page=0    chnl=0
char id=178   x=461  y=2    width=19   height=25   xoffset=0    yoffset=-2   xadvance=20   page=1    chnl=0
char id=179   x=482  y=2    width=19   height=25   xoffset=-1   yoffset=-2   xadvance=20   page=1    chnl=0
char id=180   x=386  y=34   width=14   height=10   xoffset=2    yoffset=-7   xadvance=20   page=1    chnl=0
char id=181   x=145  y=277  width=28   height=44   xoffset=2    yoffset=14   xadvance=34   page=0    chnl=0
char id=182   x=31   y=125  width=37   height=55   xoffset=1    yoffset=1    xadvance=40   page=0    chnl=0
char id=183   x=418  y=34   width=8    height=8    xoffset=1    yoffset=18   xadvance=12   page=1    chnl=0
char id=184   x=259  y=34   width=15   height=15   xoffset=1    yoffset=41   xadvance=19   page=1    chnl=0
char id=185   x=29   y=34   width=12   height=25   xoffset=-1   yoffset=-2   xadvance=14   page=1    chnl=0
char id=186   x=123  y=34   width=23   height=22   xoffset=0    yoffset=1    xadvance=25   page=1    chnl=0
char id=187   x=95   y=34   width=26   height=22   xoffset=1    yoffset=18   xadvance=29   page=1    chnl=0
char id=188   x=48   y=413  width=45   height=43   xoffset=-1   yoffset=1    xadvance=45   page=0    chnl=0
char id=189   x=0    y=413  width=46   height=43   xoffset=-1   yoffset=1    xadvance=47   page=0    chnl=0
char id=190   x=283  y=231  width=50   height=44   xoffset=-1   yoffset=0    xadvance=50   page=0    chnl=0
char id=191   x=252  y=231  width=29   height=44   xoffset=1    yoffset=14   xadvance=31   page=0    chnl=0
char id=192   x=231  y=65   width=42   height=56   xoffset=-1   yoffset=-12  xadvance=43   page=0    chnl=0
char id=193   x=275  y=65   width=42   height=56   xoffset=-1   yoffset=-12  xadvance=43   page=0    chnl=0
char id=194   x=39   y=65   width=42   height=57   xoffset=-1   yoffset=-13  xadvance=43   page=0    chnl=0
char id=195   x=160  y=125  width=42   height=54   xoffset=-1   yoffset=-10  xadvance=43   page=0    chnl=0
char id=196   x=329  y=125  width=42   height=53   xoffset=-1   yoffset=-9   xadvance=43   page=0    chnl=0
char id=197   x=240  y=2    width=43   height=59   xoffset=-1   yoffset=-15  xadvance=43   page=0    chnl=0
char id=198   x=186  y=323  width=57   height=43   xoffset=-1   yoffset=1    xadvance=58   page=0    chnl=0
char id=199   x=70   y=125  width=41   height=55   xoffset=1    yoffset=1    xadvance=46   page=0    chnl=0
char id=200   x=319  y=65   width=32   height=56   xoffset=3    yoffset=-12  xadvance=37   page=0    chnl=0
char id=201   x=353  y=65   width=32   height=56   xoffset=3    yoffset=-12  xadvance=37   page=0    chnl=0
char id=202   x=83   y=65   width=32   height=57   xoffset=3    yoffset=-13  xadvance=37   page=0    chnl=0
char id=203   x=373  y=125  width=32   height=53   xoffset=3    yoffset=-9   xadvance=37   page=0    chnl=0
char id=204   x=387  y=65   width=15   height=56   xoffset=-3   yoffset=-12  xadvance=15   page=0    chnl=0
char id=205   x=404  y=65   width=14   height=56   xoffset=1    yoffset=-12  xadvance=15   page=0    chnl=0
char id=206   x=483  y=2    width=20   height=57   xoffset=-4   yoffset=-13  xadvance=15   page=0    chnl=0
char id=207   x=477  y=65   width=19   height=53   xoffset=-3   yoffset=-9   xadvance=15   page=0    chnl=0
char id=208   x=252  y=368  width=45   height=43   xoffset=-1   yoffset=1    xadvance=47   page=0    chnl=0
char id=209   x=204  y=125  width=37   height=54   xoffset=3    yoffset=-10  xadvance=45   page=0    chnl=0
char id=210   x=350  y=2    width=45   height=58   xoffset=1    yoffset=-13  xadvance=49   page=0    chnl=0
char id=211   x=117  y=65   width=45   height=57   xoffset=1    yoffset=-12  xadvance=49   page=0    chnl=0
char id=212   x=397  y=2    width=45   height=58   xoffset=1    yoffset=-13  xadvance=49   page=0    chnl=0
char id=213   x=113  y=125  width=45   height=55   xoffset=1    yoffset=-10  xadvance=49   page=0    chnl=0
char id=214   x=282  y=125  width=45   height=54   xoffset=1    yoffset=-9   xadvance=49   page=0    chnl=0
char id=215   x=0    y=34   width=27   height=25   xoffset=4    yoffset=10   xadvance=37   page=1    chnl=0
char id=216   x=172  y=231  width=45   height=44   xoffset=1    yoffset=1    xadvance=49   page=0    chnl=0
char id=217   x=444  y=2    width=37   height=58   xoffset=3    yoffset=-13  xadvance=45   page=0    chnl=0
char id=218   x=164  y=65   width=37   height=57   xoffset=3    yoffset=-12  xadvance=45   page=0    chnl=0
char id=219   x=0    y=65   width=37   height=58   xoffset=3    yoffset=-13  xadvance=45   page=0    chnl=0
char id=220   x=243  y=125  width=37   height=54   xoffset=3    yoffset=-9   xadvance=45   page=0    chnl=0
char id=221   x=420  y=65   width=39   height=56   xoffset=-1   yoffset=-12  xadvance=39   page=0    chnl=0
char id=222   x=217  y=368  width=33   height=43   xoffset=3    yoffset=1    xadvance=39   page=0    chnl=0
char id=223   x=0    y=182  width=29   height=47   xoffset=2    yoffset=-2   xadvance=33   page=0    chnl=0
char id=224   x=315  y=413  width=31   height=43   xoffset=1    yoffset=1    xadvance=36   page=0    chnl=0
char id=225   x=159  y=413  width=31   height=43   xoffset=1    yoffset=1    xadvance=36   page=0    chnl=0
char id=226   x=299  y=368  width=31   height=43   xoffset=1    yoffset=1    xadvance=36   page=0    chnl=0
char id=227   x=0    y=458  width=31   height=42   xoffset=1    yoffset=2    xadvance=36   page=0    chnl=0
char id=228   x=99   y=458  width=31   height=41   xoffset=1    yoffset=3    xadvance=36   page=0    chnl=0
char id=229   x=221  y=182  width=31   height=46   xoffset=1    yoffset=-2   xadvance=36   page=0    chnl=0
char id=230   x=300  y=458  width=55   height=30   xoffset=1    yoffset=14   xadvance=58   page=0    chnl=0
char id=231   x=432  y=413  width=30   height=42   xoffset=1    yoffset=14   xadvance=33   page=0    chnl=0
char id=232   x=348  y=368  width=31   height=43   xoffset=1    yoffset=1    xadvance=34   page=0    chnl=0
char id=233   x=381  y=368  width=31   height=43   xoffset=1    yoffset=1    xadvance=34   page=0    chnl=0
char id=234   x=153  y=323  width=31   height=43   xoffset=1    yoffset=1    xadvance=34   page=0    chnl=0
char id=235   x=183  y=458  width=31   height=41   xoffset=1    yoffset=3    xadvance=34   page=0    chnl=0
char id=236   x=487  y=182  width=15   height=43   xoffset=-4   yoffset=1    xadvance=13   page=0    chnl=0
char id=237   x=332  y=368  width=14   height=43   xoffset=0    yoffset=1    xadvance=13   page=0    chnl=0
char id=238   x=285  y=182  width=20   height=45   xoffset=-5   yoffset=-1   xadvance=13   page=0    chnl=0
char id=239   x=132  y=458  width=19   height=41   xoffset=-4   yoffset=3    xadvance=13   page=0    chnl=0
char id=240   x=462  y=125  width=31   height=49   xoffset=1    yoffset=-5   xadvance=35   page=0    chnl=0
char id=241   x=464  y=413  width=28   height=42   xoffset=2    yoffset=2    xadvance=34   page=0    chnl=0
char id=242   x=451  y=277  width=31   height=43   xoffset=1    yoffset=1    xadvance=35   page=0    chnl=0
char id=243   x=184  y=368  width=31   height=43   xoffset=1    yoffset=1    xadvance=35   page=0    chnl=0
char id=244   x=282  y=413  width=31   height=43   xoffset=1    yoffset=1    xadvance=35   page=0    chnl=0
char id=245   x=33   y=458  width=31   height=42   xoffset=1    yoffset=2    xadvance=35   page=0    chnl=0
char id=246   x=66   y=458  width=31   height=41   xoffset=1    yoffset=3    xadvance=35   page=0    chnl=0
char id=247   x=390  y=458  width=30   height=30   xoffset=3    yoffset=7    xadvance=38   page=0    chnl=0
char id=248   x=357  y=458  width=31   height=30   xoffset=1    yoffset=14   xadvance=35   page=0    chnl=0
char id=249   x=252  y=413  width=28   height=43   xoffset=2    yoffset=1    xadvance=34   page=0    chnl=0
char id=250   x=222  y=413  width=28   height=43   xoffset=2    yoffset=1    xadvance=34   page=0    chnl=0
char id=251   x=192  y=413  width=28   height=43   xoffset=2    yoffset=1    xadvance=34   page=0    chnl=0
char id=252   x=153  y=458  width=28   height=41   xoffset=2    yoffset=3    xadvance=34   page=0    chnl=0
char id=253   x=285  y=2    width=29   height=58   xoffset=-1   yoffset=1    xadvance=28   page=0    chnl=0
char id=254   x=119  y=2    width=31   height=60   xoffset=2    yoffset=-2   xadvance=35   page=0    chnl=0
char id=255   x=0    y=125  width=29   height=55   xoffset=-2   yoffset=4    xadvance=27   page=0    chnl=0
char id=8226  x=337  y=34   width=14   height=13   xoffset=1    yoffset=23   xadvance=18   page=1    chnl=0
char id=8364  x=0    y=277  width=48   height=44   xoffset=0    yoffset=1    xadvance=51   page=0    chnl=0
kernings count=0
